Chapter 4 Data Visualisation with ggplot2 | Introduction to Statistics for Experimental Psychology with R
…
4.1 First ggplot2 Example

What this means in practice is the first thing to think about is which variables in your data you want to show on which of the two axes? Once you have decided on this you have to consider which graphical elements, which are called geoms in ggplot2 terminology, you want to use to show the data. Let us exemplify this with a first example from the Walasek and Stewart (2015) data.

One intuition we could have is that the probability that a lottery is accepted is related to the size of the potential gain, if we average over all other variables (i.e., potential loss and condition). One way to investigate this would be to calculate the average acceptance probability for each possible gain and plot this on the x-axis against the average accept probability on the y-axis. For this, we first summarise the data in this way.

lot_sum <- tbl1a %>% 
  group_by(gain) %>% 
  summarise(mean_acceptance = mean(resp))
lot_sum
#> # A tibble: 13 x 2
#>    gain mean_acceptance
#>   <dbl>           <dbl>
#> 1     6          0.0943
#> 2     8          0.138 
#> 3    10          0.214 
#> 4    12          0.222 
#> 5    14          0.340 
#> 6    16          0.326 
#> # ... with 7 more rows
…
4.2 Two Continuous Variables

The examples above show a simple case of plotting two continuous variables, the dependent variable is shown on the y-axis and the independent variable (for this plot) on the x-axis. Let us now consider a few more cases of plotting two continuous variables, by extending the data we are looking at.

In the plots above we have averaged over all possible potential losses when looking at the effect of gain on average acceptance rates. We will now plot the case in which we consider each individual lottery – that is, each unique combination of potential gain and loss – as one data point (i.e., we will not average over all potential losses for one gain). Additionally, to reduce the influence of the condition manipulation we will only consider the two symmetric condition in which the range for losses is equal to the range for gains. Let us begin the analysis by preparing the corresponding data.

lot_sum2 <- tbl1a %>% 
  filter(condition %in% c("-$20/+$20", "-$40/+$40")) %>% 
  group_by(loss, gain) %>% 
  summarise(mean_acceptance = mean(resp))
#> `summarise()` has grouped output by 'loss'. You can override using the `.groups` argument.
lot_sum2
#> # A tibble: 119 x 3
#> # Groups:   loss [13]
#>    loss  gain mean_acceptance
#>   <dbl> <dbl>           <dbl>
#> 1     6     6           0.510
#> 2     6     8           0.615
#> 3     6    10           0.729
#> 4     6    12           0.844
#> 5     6    14           0.833
#> 6     6    16           0.906
#> # ... with 113 more rows
…
The plot above that combines jitter and alpha blending makes it easier to see why we see such an effect of potential gain on mean acceptance rates when averaging over losses. There are many more data points with very low mean acceptance rates on the left side of the plot and many more data points with medium to high acceptance rates on the right side of the plot. If we imagine taking the mean of this points we can imagine a monotonically increasing mean acceptance rate.

One question that this plot leaves open is the question of why we see this qualitatively different pattern for mean acceptance rates of lotteries. Why are some so low and other larger? To elucidate this question we are going to create a new factor, ev, which separates the expected value of the lottery (i.e., loss plus gain) into three bins: expected value = 0 (i.e., symmetric lotteries), negative expected value (i.e., potential loss larger than potential gain), and positive expected value (potential loss smaller than potential gain).

To create the ev variable, we use another dplyr function, case_when(). case_when() is a vectorised variant of multiple branching (i.e., if-else). This allows to create a new variable based on multiple logical conditions in a convenient way. Each argument to case_when() consists of a logical statement, the ~ operator (which I call the tilde-operator), and a return value that is returned in case the logical condition is true. Here we have three logical cases which are each mapped onto one label describing the sign of the expected value. We also convert the ev variable into a Factor using factor().

lot_sum2 <- lot_sum2 %>% 
  mutate(ev = factor(case_when(
    gain == loss ~ "EV = 0",
    gain < loss ~ "EV negative",
    gain > loss ~ "EV positive"
  )))
lot_sum2
#> # A tibble: 119 x 4
#> # Groups:   loss [13]
#>    loss  gain mean_acceptance ev         
#>   <dbl> <dbl>           <dbl> <fct>      
#> 1     6     6           0.510 EV = 0     
#> 2     6     8           0.615 EV positive
#> 3     6    10           0.729 EV positive
#> 4     6    12           0.844 EV positive
#> 5     6    14           0.833 EV positive
#> 6     6    16           0.906 EV positive
#> # ... with 113 more rows
…
Note, this is a global options that will affect all plots created after executing this command within an R session (i.e., to reset to the default theme you would have to restart your R session).

4.4 One Continuous and one Categorical Variable

Before creating plots with one continuous dependent variable and one categorical independent variable, we need to create the corresponding data from. In the plots above we have aggregated the data of Walasek and Stewart (2015) on the level of the individual lotteries (i.e., unique combination of gains and losses). Whereas this made sense for the plots above, it ignored the different participants (i.e., we aggregated across participants), which are usually considered a major source of noise. In other words, the plots above focussed on differences across lotteries but ignored differences across participants. However, as we have have discussed before, different people can do what they do for a number of different reasons, so we know that people differ quite a bit; we expect individual differences. What this means that it usually is a good idea to show the distribution of responses over participants, which provides a visual impression of the level of noise in the data.

Therefore, instead of aggregating across participants we will create a new data set for which first calculate one score per participant and condition. Then, we will plot the distribution across participants for each condition. We begin by creating this data for all lotteries. Whereas this might not be the most informative plot substantively (e.g., compared to only plotting the shared symmetric lotteries), it is more instructive in the present case as our main goal is to try out a few different plotting options. In a later section we will produce a plot of only the shared lotteries that will be more interesting for the research question of loss aversion.

part_sum <- tbl1a %>%
  group_by(condition, subno) %>%   # aggregate for both, condition and subno
  summarise(mean_acc = mean(resp)) 
#> `summarise()` has grouped output by 'condition'. You can override using the `.groups` argument.
part_sum
#> # A tibble: 358 x 3
#> # Groups:   condition [4]
#>   condition subno mean_acc
#>   <fct>     <fct>    <dbl>
#> 1 -$20/+$40 5        0.562
#> 2 -$20/+$40 13       0.5  
#> 3 -$20/+$40 53       0.344
#> 4 -$20/+$40 61       0.484
#> 5 -$20/+$40 73       0.266
#> 6 -$20/+$40 85       0.375
#> # ... with 352 more rows
…
The plot allows us an interesting conclusion with regards to the distribution and the mean. For the three conditions that have a clearly visible mode (or “bump”; i.e., all but the -$20/+$40 condition), the mode differs noticeably from the mean. The reason for this is that the distributions are asymmetric around the mode with a long tail towards one end of the distribution. Such a long tail pushes the mean away from the mode towards the tail as can be seen here. What this means is that any statistical analysis that only focuses on the mean (which are all statistical analyses discussed in this book) provides in some sense an imperfect picture of the data. Whereas the mean of course represents the average of all values (because it is defined that way) it might not always represent the most typical value of a distribution (if we want to understand a typical value as one near the mode).

The message from the previous paragraph is not that in a case with a rather asymmetric distribution focussing on the mean as a summary statistic is necessarily wrong, because it is not wrong. The message is something else: If we only focus the mean and do not show the actual data, we miss out on the nuances that real data usually have. Of course it is interesting to see what happens to the mean, it is the most important summary statistic (and in the absence of additional information the best prediction for a new observation from data is the mean, even if it is an asymmetric distribution). However, if the mean is not very typical for the distribution because of an asymmetric shape, this is an important result in addition to whatever happens to the mean. To fully understand the evidence provided by a data set, we have to understand the data fully, including it’s level of noise, peculiarities, and nuances. Therefore, always plot the full distribution when plotting the mean.

only the symmetric lotteries that are shared across conditions separately for each participant and condition.

part_sum <- tbl1a %>%
  filter(loss == gain, loss %in% c(12, 16, 20)) %>% 
  group_by(condition, subno) %>% 
  summarise(mean_acc = mean(resp)) %>% 
  ungroup()
#> `summarise()` has grouped output by 'condition'. You can override using the `.groups` argument.
part_sum
#> # A tibble: 358 x 3
#>   condition subno mean_acc
#>   <fct>     <fct>    <dbl>
#> 1 -$20/+$40 5        0    
#> 2 -$20/+$40 13       0    
#> 3 -$20/+$40 53       0    
#> 4 -$20/+$40 61       0    
#> 5 -$20/+$40 73       0.667
#> 6 -$20/+$40 85       0.667
#> # ... with 352 more rows
…
