ggplot2 Exercises | Introduction to Statistics for Experimental Psychology with R
…
only the symmetric lotteries that are shared across conditions separately for each participant and condition.

part_sum <- ws1 %>%
  filter(loss == gain, loss %in% c(12, 16, 20)) %>% 
  group_by(condition, subno) %>% 
  summarise(mean_acc = mean(resp)) %>% 
  ungroup()
#> `summarise()` has grouped output by 'condition'. You can override using the `.groups` argument.
part_sum
#> # A tibble: 781 x 3
#>   condition subno   mean_acc
#>   <fct>     <fct>      <dbl>
#> 1 -$20/+$40 e1a_109        0
#> 2 -$20/+$40 e1a_113        0
#> 3 -$20/+$40 e1a_125        0
#> 4 -$20/+$40 e1a_129        0
#> 5 -$20/+$40 e1a_13         0
#> 6 -$20/+$40 e1a_133        0
#> # ... with 775 more rows
…
