Chapter 4 Data Visualisation with ggplot2 | Introduction to Statistics for Experimental Psychology with R
…
One intuition we could have is that the probability that a lottery is accepted is related to the size of the potential gain, if we average over all other variables (i.e., potential loss and condition). To investigate this, we first need to calculate the average acceptance probability for each possible gain. Then, we can create a plot with each possible gain on the x-axis against the average accept probability on the y-axis. To summarise the data, we use the now well-known combination of group_by() and summarise().

lot_sum <- ws1 %>% 
  group_by(gain) %>% 
  summarise(mean_acceptance = mean(resp))
lot_sum
#> # A tibble: 13 x 2
#>    gain mean_acceptance
#>   <dbl>           <dbl>
#> 1     6          0.0938
#> 2     8          0.134 
#> 3    10          0.229 
#> 4    12          0.239 
#> 5    14          0.358 
#> 6    16          0.345 
#> # ... with 7 more rows
…
4.2 Two Continuous Variables

The examples above show a simple case of plotting two continuous variables, the dependent variable is shown on the y-axis and the independent variable (for this plot) on the x-axis, which is the usual convention for creating plots. Let us now consider a few more cases of plotting two continuous variables, by extending the data we are looking at.

In the plots above we have averaged over all possible potential losses when looking at the effect of gain on average acceptance rates. We will now plot the case in which we consider each individual lottery – that is, each unique combination of potential gain and loss – as one data point (i.e., we will not average over all potential losses for one gain). Additionally, to reduce the influence of the condition manipulation when doing so we will only consider the two symmetric conditions in which the range for losses is equal to the range for gains. Let us begin the analysis by preparing the corresponding data.

lot_sum2 <- ws1 %>% 
  filter(condition %in% c("-$20/+$20", "-$40/+$40")) %>% 
  group_by(loss, gain) %>% 
  summarise(mean_acceptance = mean(resp))
#> `summarise()` has grouped output by 'loss'. You can override using the `.groups` argument.
lot_sum2
#> # A tibble: 119 x 3
#> # Groups:   loss [13]
#>    loss  gain mean_acceptance
#>   <dbl> <dbl>           <dbl>
#> 1     6     6           0.520
#> 2     6     8           0.614
#> 3     6    10           0.777
#> 4     6    12           0.881
#> 5     6    14           0.876
#> 6     6    16           0.916
#> # ... with 113 more rows
…
The plot above that combines jitter and alpha blending makes it easier to see why we see such an effect of potential gain on mean acceptance rates when averaging over losses. There are many more data points with very low mean acceptance rates on the left side of the plot and many more data points with medium to high acceptance rates on the right side of the plot. If we imagine taking the mean of these points we can imagine an essentially monotonically increasing mean acceptance rate (i.e., an essentially continuously increasing and not decreasing mean acceptance rate).

One question that this plot leaves open is the question of why we see this qualitatively different pattern for mean acceptance rates of lotteries. Why are some so low and others larger? To provide an answer to this question we are going to create a new factor, ev (for expected value), which separates the expected value of the lottery (i.e., loss plus gain) into three bins: expected value = 0 (i.e., symmetric lotteries), negative expected value (i.e., potential loss larger than potential gain), and positive expected value (potential loss smaller than potential gain).

To create the ev variable, we use another dplyr function, case_when(). case_when() is a vectorised variant of multiple branching (i.e., if-else). This allows us to create a new variable based on multiple logical conditions in a convenient way. Each argument to case_when() consists of a logical statement, the ~ operator (which I call the tilde-operator), and a return value that is returned in case the logical condition is true. Here we have three logical cases which are each mapped onto one label describing the sign of the expected value. We also convert the ev variable into a factor using factor(). In the call to factor() we also specify the order of factor levels.

lot_sum2 <- lot_sum2 %>% 
  mutate(ev = factor(case_when(
    gain == loss ~ "EV = 0",
    gain < loss ~ "EV negative",
    gain > loss ~ "EV positive"
  ), levels = c("EV negative", "EV = 0", "EV positive")))
lot_sum2
#> # A tibble: 119 x 4
#> # Groups:   loss [13]
#>    loss  gain mean_acceptance ev         
#>   <dbl> <dbl>           <dbl> <fct>      
#> 1     6     6           0.520 EV = 0     
#> 2     6     8           0.614 EV positive
#> 3     6    10           0.777 EV positive
#> 4     6    12           0.881 EV positive
#> 5     6    14           0.876 EV positive
#> 6     6    16           0.916 EV positive
#> # ... with 113 more rows
…
The plots above focussed on the two symmetric conditions. However, we could be interested whether the pattern we saw above looks similar across the four different conditions (i.e., also the two asymmetric loss/gain range conditions). For this, it might make sense to create one plot for each condition. One naive way to create sub plots would be to split the data into different data sets and create one plot for each sub data set.

A different way is provided through the ggplot2 technique of faceting. This means letting ggplot2 create sub-plots based on one variable. To show this for the present data, we again need to prepare a new tibble that is similar to the one above. However, now we aggregate the data such that we have one average mean acceptance value for each lottery (i.e., unique combination of loss and gain) in each condition. Then we also add the ev variable as above.

lot_sum_all <- ws1 %>% 
  group_by(condition, loss, gain) %>% 
  summarise(mean_acceptance = mean(resp)) %>% 
  mutate(ev = factor(case_when(
    gain == loss ~ "EV = 0",
    gain < loss ~ "EV negative",
    gain > loss ~ "EV positive"
  ), levels = c("EV negative", "EV = 0", "EV positive")))
#> `summarise()` has grouped output by 'condition', 'loss'. You can override using the `.groups` argument.
lot_sum_all
#> # A tibble: 256 x 5
#> # Groups:   condition, loss [32]
#>   condition  loss  gain mean_acceptance ev         
#>   <fct>     <dbl> <dbl>           <dbl> <fct>      
#> 1 -$20/+$40     6    12           0.613 EV positive
#> 2 -$20/+$40     6    16           0.702 EV positive
#> 3 -$20/+$40     6    20           0.874 EV positive
#> 4 -$20/+$40     6    24           0.890 EV positive
#> 5 -$20/+$40     6    28           0.916 EV positive
#> 6 -$20/+$40     6    32           0.942 EV positive
#> # ... with 250 more rows
…
So far we have looked at two continuous variables and seen how by mapping different variables to different aesthetics and by changing the arguments to the aesthetics, we can create appealing figures. Now we are trying to do the same for a situation that is potentially more common for experimental data, a situation with one continuous dependent variable and one categorical independent variable.

Before creating plots with one continuous dependent variable and one categorical independent variable, we need to create the corresponding data. In the plots above we have aggregated the data of Walasek and Stewart (2015) on the level of the individual lotteries (i.e., unique combination of potential losses and gains). Whereas this made sense for the plots above, it ignored the different participants (i.e., we aggregated across participants). In other words, the plots above focussed on differences across lotteries but ignored differences across participants.

Remember, our general goal is to find the signal (i.e., the response to the independent variable) among the noise in the data. For experimental data, participants are usually considered a major source of noise. As we have discussed before, different people can do what they do for a number of different reasons that may be related or unrelated to our research question. What this means concretely for when we produce data visualisation is that it usually is a good idea to show the distribution of responses over participants. This provides a visual impression of the level of noise produced by one of the main sources of noise in the data.

Therefore, instead of aggregating across participants we will create a new data set for which first calculate one score per participant and condition. Then, we will plot the distribution across participants for each condition. We begin by creating this data for all lotteries. Whereas this might not be the most informative plot substantively (e.g., compared to only plotting the shared symmetric lotteries), it is more instructive in the present case as our main goal right now is to try out a few different plotting options (and not necessarily solving the conundrum behind loss aversion). In a later section we will produce a plot of only the shared lotteries that will be more interesting for the research question of loss aversion.

part_sum <- ws1 %>%
  group_by(condition, subno) %>%   # aggregate for both, condition and subno
  summarise(mean_acc = mean(resp)) 
#> `summarise()` has grouped output by 'condition'. You can override using the `.groups` argument.
part_sum
#> # A tibble: 781 x 3
#> # Groups:   condition [4]
#>   condition subno   mean_acc
#>   <fct>     <fct>      <dbl>
#> 1 -$20/+$40 e1a_109    0.203
#> 2 -$20/+$40 e1a_113    0.859
#> 3 -$20/+$40 e1a_125    0.516
#> 4 -$20/+$40 e1a_129    0.844
#> 5 -$20/+$40 e1a_13     0.5  
#> 6 -$20/+$40 e1a_133    0.5  
#> # ... with 775 more rows
…
