Chapter 3 Short Introduction to R and the tidyverse | Introduction to Statistics for Experimental Psychology with R
…
ggplot2: System for data visualization.

purr and broom: Advanced modelling with the tidyverse and tidymodels which will not be discussed here.

In the following we provide a short introduction to the core components of the tidyverse as they are needed for this book. A more comprehensive introduction is provided in the Wickham and Grolemund book “R for Data Science” which is available freely at http://r4ds.had.co.nz. To get a good grip on the tidyverse, I highly recommend working through chapters 1 to 21, or better 1 to 25 (the chapters in “R for Data Science” are a lot shorter than the chapters in the present book).

3.5.1 tibble and readr

The back bone of the tidyverse is the tibble, or tbl_df (it’s class name in R), “a modern reimagining of the data.frame, keeping what time has proven to be effective, and throwing out what is not” (quote from tibble documentation). The main difference between data.frame and tibble in daily use is that tibbles do not try to print all rows and columns and thus do not overwhelm the console when just entering the name of the data at the console. This feature alone is enough for me to prefer tibbles over data.frames. When working on an analysis one often wants to have a quick look at the data to see what has happened and the easiest way to do that is often to just enter the name of the data into the console. With data.frames this regularly clutters the console and with tibbles it does not.

To convert a data.frame into a tibble you can use the as_tibble() function. Let us do this for our existing data.frame of Walasek and Stewart (2015), df1a.

tbl1a <- as_tibble(df1a)
tbl1a
#> # A tibble: 22,912 x 6
#>   subno  loss  gain response condition  resp
#>   <fct> <int> <int> <fct>    <fct>     <int>
#> 1 8         6     6 accept   -$20/+$20     1
#> 2 8         6     8 accept   -$20/+$20     1
#> 3 8         6    10 accept   -$20/+$20     1
#> 4 8         6    12 accept   -$20/+$20     1
#> 5 8         6    14 accept   -$20/+$20     1
#> 6 8         6    16 accept   -$20/+$20     1
#> # ... with 22,906 more rows
…
An alternative way to creating a tibble instead of a standard data.frame is by loading the data using the tidyverse specific read functions which are in the readr package. Remember that above we used the base R read function read.csv(), which is one of a handful of base R data read in functions such as read.table() (for reading data separated by spaces) and read.delim() (for reading tab separated data). readr offers a similar set of functions where the main differences are that instead of using a . in the function name they use an _ and instead of a data.frame they return a tibble. So in case you have a csv file, you could use read_csv() instead of read.csv(). Note that in this and in the following code chunks we are going to override the existing tbl1a object to not clutter the work space.

tbl1a <- read_csv("data/ws2015_exp1a.csv")
#> 
#> -- Column specification --------------------------------------------------------
#> cols(
#>   subno = col_double(),
#>   loss = col_double(),
#>   gain = col_double(),
#>   response = col_character(),
#>   condition = col_double(),
#>   resp = col_double()
#> )
tbl1a
#> # A tibble: 22,912 x 6
#>   subno  loss  gain response condition  resp
#>   <dbl> <dbl> <dbl> <chr>        <dbl> <dbl>
#> 1     8     6     6 accept        20.2     1
#> 2     8     6     8 accept        20.2     1
#> 3     8     6    10 accept        20.2     1
#> 4     8     6    12 accept        20.2     1
#> 5     8     6    14 accept        20.2     1
#> 6     8     6    16 accept        20.2     1
#> # ... with 22,906 more rows

What we can see from the output is that read_csv() not only returns the tibble, but also a message showing the column specification (i.e., data type for each column). This message is actually a call to the cols() function that could be copied and modified to change the column specification when reading in the data. For example, if we wanted to change subno we could do so directly here:

tbl1a <- read_csv("data/ws2015_exp1a.csv", 
                  col_types = cols(
                    subno = col_factor(),
                    loss = col_double(),
                    gain = col_double(),
                    response = col_character(),
                    condition = col_double(),
                    resp = col_double()
                  ))
tbl1a
#> # A tibble: 22,912 x 6
#>   subno  loss  gain response condition  resp
#>   <fct> <dbl> <dbl> <chr>        <dbl> <dbl>
#> 1 8         6     6 accept        20.2     1
#> 2 8         6     8 accept        20.2     1
#> 3 8         6    10 accept        20.2     1
#> 4 8         6    12 accept        20.2     1
#> 5 8         6    14 accept        20.2     1
#> 6 8         6    16 accept        20.2     1
#> # ... with 22,906 more rows
…
3.5.3.1 mutate()

Let us show this behaviour here by replicating the call above to convert some variables in our data to factors. We start again by reading the data in. We then pipe this freshly read in data to the mutate() function to convert three variables to factors as done above and save it again in the same object, tbl1a. We then get an overview of the object.

tbl1a <- read_csv("data/ws2015_exp1a.csv")
tbl1a <- tbl1a %>% 
  mutate(
    subno = factor(subno),
    response = factor(response, levels = c("reject", "accept")),
    condition = factor(condition, 
                        levels = c(40.2, 20.2, 40.4, 20.4), 
                        labels = c("-$20/+$40", "-$20/+$20", "-$40/+$40", "-$40/+$20"))
  )
tbl1a
#> # A tibble: 22,912 x 6
#>   subno  loss  gain response condition  resp
#>   <fct> <dbl> <dbl> <fct>    <fct>     <dbl>
#> 1 8         6     6 accept   -$20/+$20     1
#> 2 8         6     8 accept   -$20/+$20     1
#> 3 8         6    10 accept   -$20/+$20     1
#> 4 8         6    12 accept   -$20/+$20     1
#> 5 8         6    14 accept   -$20/+$20     1
#> 6 8         6    16 accept   -$20/+$20     1
#> # ... with 22,906 more rows
…
Note that filter() requires to use the == operator and not the = operator. The reason is that you do not want to set something equal to something, which is done using =, but want to check for equality, which is done using ==. filter() also allows you to chain multiple comparisons together, either by separating them using , or & (i.e., logical and). If only one of multiple conditions needs to hold you can use | (logical or).

filter() is also the function for removing observations in the tidyverse. This is done by writing a filter that retains all observations but the ones you want to remove. For this you can also use the logical not operator, ! which inverts a logical vector, or the unequal operator, !=.

For example, we discussed that what we are actually interested in in the data from Walasek and Stewart (2015) are the responses to the symmetric lotteries for which the potential loss is equal to the potential gain. We could select those with filter():

symm1 <- tbl1a %>%
  filter(loss == gain)
symm1
#> # A tibble: 1,989 x 6
#>   subno  loss  gain response condition  resp
#>   <fct> <dbl> <dbl> <fct>    <fct>     <dbl>
#> 1 8         6     6 accept   -$20/+$20     1
#> 2 8         8     8 accept   -$20/+$20     1
#> 3 8        10    10 accept   -$20/+$20     1
#> 4 8        12    12 accept   -$20/+$20     1
#> 5 8        14    14 accept   -$20/+$20     1
#> 6 8        16    16 accept   -$20/+$20     1
#> # ... with 1,983 more rows
…
In particular, the output shows that in the asymmetric conditions, -$20/+$40 and -$40/+$20, we only have three symmetric lotteries, whereas in the two symmetric conditions we have quite a lot more. However, the three symmetric lotteries that appear in the asymmetric conditions, 12-12, 16-16, and 20-20, appear in all conditions.

Before focussing on how we can build a better filter, let us first see how the code above exactly did what it did. We again first filter all symmetric lotteries. From this data we then retain or select() only the loss, gain, and condition columns. We then use the unique() function to only retain the unique rows. Because we have a specific ordering in which we think about the conditions (which is expressed in the order of the factor levels) we then sort the tibble along the condition variable using arrange(). Finally, because per default a tibble only prints a few rows we use print(n = Inf) which for any tibble prints all rows (i.e., up to row infinity). To better understand the code, you are encouraged to run it line by line to see what the output at each intermediate step is (to get the output at a subset of lines of codes, do not select the %>% at the end of the last line when running it).

So how can we select only the symmetric lotteries that appear in all conditions? There clearly are multiple possible filters to do so. The one that easiest comes to my mind is to combine the filter that selects all symmetric lotteries with a filter that only selects lotteries in which the potential loss is either 12, 16, or 20. For the latter we introduce a new operator, the %in% operator. It returns TRUE for any element of a vector that matches an element in another vector. For example in our case, we want to retain all those lotteries where the potential loss is in c(12, 16, 20). This is shown below. We also include the code that shows that we now have the same set of symmetric lotteries in all conditions.

tbl1a %>%
  filter(loss == gain, loss %in% c(12, 16, 20)) %>% 
  select(loss, gain, condition) %>% 
  unique() %>% 
  arrange(condition) 
#> # A tibble: 12 x 3
#>    loss  gain condition
#>   <dbl> <dbl> <fct>    
#> 1    12    12 -$20/+$40
#> 2    16    16 -$20/+$40
#> 3    20    20 -$20/+$40
#> 4    12    12 -$20/+$20
#> 5    16    16 -$20/+$20
#> 6    20    20 -$20/+$20
#> # ... with 6 more rows
…
We can see that the output now contains the average proportion to accept the symmetric lotteries for each of the four conditions separately. So instead of first splitting the data and then calculating the summary statistics (here: mean of resp column) for each split by hand, group_by() does exactly this internally.

In other words, whenever we have a categorical variable in our data we can use group_by() to perform operations conditionally across the levels of the categorical variable. Given the ubiquity of categorical variables, at least in experiments the experimental factor is one, but other data sets also usually have at least one categorical variable, this is a huge time and effort saver.

And whereas we have shown this here for summarise(), which is probably the most common use case, this also works for the other dplyr verbs for which the results can depend on other rows, mutate() and arrange().

In the example above, we have only passed one variable to group_by(), condition. We can also pass multiple variables. This will perform the operations conditional on the combination of both variables. For example, here we have selected exactly the lotteries with the three symmetric lotteries that are the same across conditions. With group_by() it is easy to get the average accept proportion separately for each of these symmetric lotteries per condition:

tbl1a %>%
  filter(loss == gain, loss %in% c(12, 16, 20)) %>% 
  group_by(condition, loss, gain) %>% 
  summarise(mean_acc = mean(resp))
#> `summarise()` has grouped output by 'condition', 'loss'. You can override using the `.groups` argument.
#> # A tibble: 12 x 4
#> # Groups:   condition, loss [12]
#>   condition  loss  gain mean_acc
#>   <fct>     <dbl> <dbl>    <dbl>
#> 1 -$20/+$40    12    12    0.190
#> 2 -$20/+$40    16    16    0.119
#> 3 -$20/+$40    20    20    0.190
#> 4 -$20/+$20    12    12    0.469
#> 5 -$20/+$20    16    16    0.458
#> 6 -$20/+$20    20    20    0.458
#> # ... with 6 more rows

Note that pretty much the same result would be obtained if only passing one of the gain/loss variable pair to group_by() here. Feel free to try it out.

The results are not straight forward to interpret as they do not show a consistent pattern across conditions. For the symmetric conditions the difference in acceptance rate seems to be small. However, for the asymmetric conditions we see somewhat more noticeable differences that suggest that the 16-16 lottery may have somewhat lower acceptance rates than both the 12-12 and 20-20 lottery. However, as these are only descriptive results without any additional inferential statistical evidence, it is very much possible that this small differences within conditions reflects pure noise and should not be taken too seriously.

Before ending this section on group_by(), there is one more thing to discuss. As shown in the output above, summarise() still returns a grouped tibble in case one calls group_by() initially with more than one variable. This can be seen by both the status message “summarise() has grouped output by …” and because the output still shows # Groups: .... This means that if we were to do any further operations on this result it would still be performed grouped. To remove the grouping created by group_by() use the ungroup() function as shown next.

tbl1a %>%
  filter(loss == gain, loss %in% c(12, 16, 20)) %>% 
  group_by(condition, loss, gain) %>% 
  summarise(mean_acc = mean(resp)) %>% 
  ungroup()
#> `summarise()` has grouped output by 'condition', 'loss'. You can override using the `.groups` argument.
#> # A tibble: 12 x 4
#>   condition  loss  gain mean_acc
#>   <fct>     <dbl> <dbl>    <dbl>
#> 1 -$20/+$40    12    12    0.190
#> 2 -$20/+$40    16    16    0.119
#> 3 -$20/+$40    20    20    0.190
#> 4 -$20/+$20    12    12    0.469
#> 5 -$20/+$20    16    16    0.458
#> 6 -$20/+$20    20    20    0.458
#> # ... with 6 more rows
…
To understand what how ggplot2 works, it makes sense to contrast it to the base R graphics engine around the plot() function. For plot() creating a plot is done by drawing individual graphical elements such as points() or lines(). These functions generally only accept individual vectors or data points.

In contrast, ggplot2 requires that the data is passed either as a data.frame or tibble. With this in hand, “you provide the data, tell ggplot2 how to map variables to aesthetics, what graphical primitives to use, and it takes care of the details.” (quote from the official documentation).

3.6.1 First ggplot2 Example

What this means in practice is the first thing to think about is which variables in your data you want to show on which of the two axes? Once you have decided on this you have to consider which graphical elements, which are called geoms in ggplot2 terminology, you want to use to show the data. Let us exemplify this with a first example from the Walasek and Stewart (2015) data.

One intuition we could have is that the probability that a lottery is accepted is related to the size of the potential gain, if we average over all other variables (i.e., potential loss and condition). One way to investigate this would be to calculate the average acceptance probability for each possible gain and plot this on the x-axis against the average accept probability on the y-axis. For this, we first summarise the data in this way.

lot_sum <- tbl1a %>% 
  group_by(gain) %>% 
  summarise(mean_acceptance = mean(resp))
lot_sum
#> # A tibble: 13 x 2
#>    gain mean_acceptance
#>   <dbl>           <dbl>
#> 1     6          0.0943
#> 2     8          0.138 
#> 3    10          0.214 
#> 4    12          0.222 
#> 5    14          0.340 
#> 6    16          0.326 
#> # ... with 7 more rows
…
3.6.2 Two Continuous Variables

The examples above show a simple case of plotting two continuous variables, the dependent variable is shown on the y-axis and the independent variable (for this plot) on the x-axis. Let us now consider a few more cases of plotting two continuous variables, by extending the data we are looking at.

In the plots above we have averaged over all possible potential losses when looking at the effect of gain on average acceptance rates. We will now plot the case in which we consider each individual lottery – that is, each unique combination of potential gain and loss – as one data point (i.e., we will not average over all potential losses for one gain). Additionally, to reduce the influence of the condition manipulation we will only consider the two symmetric condition in which the range for losses is equal to the range for gains. Let us begin the analysis by preparing the corresponding data.

lot_sum2 <- tbl1a %>% 
  filter(condition %in% c("-$20/+$20", "-$40/+$40")) %>% 
  group_by(loss, gain) %>% 
  summarise(mean_acceptance = mean(resp))
#> `summarise()` has grouped output by 'loss'. You can override using the `.groups` argument.
lot_sum2
#> # A tibble: 119 x 3
#> # Groups:   loss [13]
#>    loss  gain mean_acceptance
#>   <dbl> <dbl>           <dbl>
#> 1     6     6           0.510
#> 2     6     8           0.615
#> 3     6    10           0.729
#> 4     6    12           0.844
#> 5     6    14           0.833
#> 6     6    16           0.906
#> # ... with 113 more rows
…
Note that due to the randomness that is used to add the jotter, this plot will look slightly different every time it is created. This plot also makes it easier to see why we see such an effect of potential gain on mean acceptance rates when averaging over losses. There are many more data points with very low mean acceptance rates on the left side of the plot and many more data points with medium to high acceptance rates on the right side of the plot. If we imagine taking the mean of this points we can imagine a monotonically increasing mean acceptance rate.

However, one question that this plot leaves open is the question of why we see this qualitatively different pattern for mean acceptance rates of lotteries. Why are some so low and other larger? To elucidate this question we are going to create a new factor, ev, which separates the expected value of the lottery (i.e., loss plus gain) into three bins: expected value = 0 (i.e., symmetric lotteries), negative expected value (i.e., potential loss larger than potential gain), and positive expected value (potential loss smaller than potential gain).

To create the ev variable, we use another dplyr function, case_when(). case_when() is a vectorised variant of multiple branching (i.e., if-else). This allows to create a new variable based on multiple logical conditions in a convenient way. Each argument to case_when() consists of a logical statement, the ~ operator (which I call the tilde-operator), and a return value that is returned in case the logical condition is true. Here we have three logical cases which are each mapped onto one label describing the sign of the expected value. We also convert the ev variable into a Factor using factor().

lot_sum2 <- lot_sum2 %>% 
  mutate(ev = factor(case_when(
    gain == loss ~ "EV = 0",
    gain < loss ~ "EV negative",
    gain > loss ~ "EV positive"
  )))
lot_sum2
#> # A tibble: 119 x 4
#> # Groups:   loss [13]
#>    loss  gain mean_acceptance ev         
#>   <dbl> <dbl>           <dbl> <fct>      
#> 1     6     6           0.510 EV = 0     
#> 2     6     8           0.615 EV positive
#> 3     6    10           0.729 EV positive
#> 4     6    12           0.844 EV positive
#> 5     6    14           0.833 EV positive
#> 6     6    16           0.906 EV positive
#> # ... with 113 more rows
…
