Chapter 3 Short Introduction to R and the tidyverse | Introduction to Statistics for Experimental Psychology with R
…
ggplot2: A system for data visualization, in other words, making graphs. This will be discussed in the next chapter.

purr and broom: Advanced modelling with the tidyverse and tidymodels which will not be discussed here.

In the following we provide a short introduction to the core components of the tidyverse as they are needed for this book. A more comprehensive introduction is provided in the Wickham and Grolemund book “R for Data Science” which is available freely at http://r4ds.had.co.nz. To get a good grip on the tidyverse, I highly recommend working through chapters 1 to 21, or better still, to chapter 25 (the chapters in “R for Data Science” are a lot shorter than the chapters in the present book).

3.5.1 tibble and readr

The back bone of the tidyverse is the tibble, or tbl_df (it’s class name in R), “a modern reimagining of the data.frame, keeping what time has proven to be effective, and throwing out what is not” (quote from tibble documentation). The main difference between a data.frame and tibble in daily use is that tibbles do not try to print all rows and columns and thus do not overwhelm the console when just entering the name of the data at the console. This feature alone is enough for me to prefer tibbles over data.frames. When working on an analysis, one often wants to have a quick look at the data to see what has happened and the easiest way to do that is often to just enter the name of the data into the console.

To convert a data.frame into a tibble you can use the as_tibble() function. Let’s do this for our existing data.frame of Walasek and Stewart (2015), df1a.

tbl1a <- as_tibble(df1a)
tbl1a
#> # A tibble: 22,912 x 6
#>   subno  loss  gain response condition  resp
#>   <fct> <int> <int> <fct>    <fct>     <int>
#> 1 8         6     6 accept   -$20/+$20     1
#> 2 8         6     8 accept   -$20/+$20     1
#> 3 8         6    10 accept   -$20/+$20     1
#> 4 8         6    12 accept   -$20/+$20     1
#> 5 8         6    14 accept   -$20/+$20     1
#> 6 8         6    16 accept   -$20/+$20     1
#> # ... with 22,906 more rows
In the output of the tibble, we can see two things. First, the output only shows the first 6 rows. Compare this to what happens when typing df1a in the console which will print many more rows (so you cannot see the column names anymore). Second, the data type of each column is shown below the column names. This is another feature that makes tibbles more convenient in everyday use. We directly see that for example subno is a factor (<fct>) as it should be.

An alternative way to create a tibble instead of a standard data.frame is by loading the data using the tidyverse specific read functions which are in the readr package. Remember that above we used the base R read function read.csv(), which is one of a handful of base R data read functions such as read.table() (for reading data separated by spaces) and read.delim() (for reading tab separated data). readr offers a similar set of functions where the main differences are that instead of using a . in the function name they use an _ and instead of a data.frame they return a tibble. So in case you have a csv file, you could use read_csv() instead of read.csv(). Note that in this and in the following code chunks, we are going to overwrite the existing tbl1a object to not clutter the work space.

tbl1a <- read_csv("data/ws2015_exp1a.csv")
#> Rows: 22912 Columns: 6
#> -- Column specification ------------------------------------
#> Delimiter: ","
#> chr (1): response
#> dbl (5): subno, loss, gain, condition, resp
#> 
#> i Use `spec()` to retrieve the full column specification for this data.
#> i Specify the column types or set `show_col_types = FALSE` to quiet this message.
tbl1a
#> # A tibble: 22,912 x 6
#>   subno  loss  gain response condition  resp
#>   <dbl> <dbl> <dbl> <chr>        <dbl> <dbl>
#> 1     8     6     6 accept        20.2     1
#> 2     8     6     8 accept        20.2     1
#> 3     8     6    10 accept        20.2     1
#> 4     8     6    12 accept        20.2     1
#> 5     8     6    14 accept        20.2     1
#> 6     8     6    16 accept        20.2     1
#> # ... with 22,906 more rows

What we can see from the output is that read_csv() not only returns the tibble, but also a message showing the column specification (i.e., data type for each column). We could use this to change the column type when reading in the data, but I usually do not find this necessary. In most cases it is sufficient to change the data type once the data is read in, as shown below.

As the status message also shows, you can stop this message from appearing by specifying an additional argument to the read_csv() call, show_col_types = FALSE. I don’t think this is necessary. However, the following shows that it works as expected.

tbl1a <- read_csv("data/ws2015_exp1a.csv", show_col_types = FALSE)
tbl1a
#> # A tibble: 22,912 x 6
#>   subno  loss  gain response condition  resp
#>   <dbl> <dbl> <dbl> <chr>        <dbl> <dbl>
#> 1     8     6     6 accept        20.2     1
#> 2     8     6     8 accept        20.2     1
#> 3     8     6    10 accept        20.2     1
#> 4     8     6    12 accept        20.2     1
#> 5     8     6    14 accept        20.2     1
#> 6     8     6    16 accept        20.2     1
#> # ... with 22,906 more rows
…
As an example, here is how you can use mutate() and the pipe to convert some variables in a data set to factors, as we did above in base R. We start again by reading the data in. We then pipe this data to the mutate() function to convert three variables to factors as done above, and save it again in the same object, tbl1a. We then get an overview of the object.

tbl1a <- read_csv("data/ws2015_exp1a.csv")
tbl1a <- tbl1a %>% 
  mutate(
    subno = factor(subno),
    response = factor(response, levels = c("reject", "accept")),
    condition = factor(
      condition, 
      levels = c(40.2, 20.2, 40.4, 20.4), 
      labels = c("-$20/+$40", "-$20/+$20", "-$40/+$40", "-$40/+$20")
    )
  )
tbl1a
#> # A tibble: 22,912 x 6
#>   subno  loss  gain response condition  resp
#>   <fct> <dbl> <dbl> <fct>    <fct>     <dbl>
#> 1 8         6     6 accept   -$20/+$20     1
#> 2 8         6     8 accept   -$20/+$20     1
#> 3 8         6    10 accept   -$20/+$20     1
#> 4 8         6    12 accept   -$20/+$20     1
#> 5 8         6    14 accept   -$20/+$20     1
#> 6 8         6    16 accept   -$20/+$20     1
#> # ... with 22,906 more rows
…
Note that filter() requires the use of the == operator and not the = operator. The reason is that you do not want to set a variable equal to something, which is done using =, but want to check for equality, which is done using ==. filter() also allows you to chain multiple comparisons together, either by separating them using , or & (i.e., logical and). If only one of multiple conditions needs to hold, you can use | (logical or).

filter() is also the function for removing observations. This is done by writing a filter that retains all observations except for the ones you want to remove. For this you can also use the logical not operator, ! which inverts a logical vector, or the unequal operator, !=.

For example, you’ll recall that, with relation to the study of Walasek and Stewart (2015), what we are actually interested in are the responses to the symmetric lotteries (when the potential loss is equal to the potential gain). We could select those with filter():

symm1 <- tbl1a %>%
  filter(loss == gain)
symm1
#> # A tibble: 1,989 x 6
#>   subno  loss  gain response condition  resp
#>   <fct> <dbl> <dbl> <fct>    <fct>     <dbl>
#> 1 8         6     6 accept   -$20/+$20     1
#> 2 8         8     8 accept   -$20/+$20     1
#> 3 8        10    10 accept   -$20/+$20     1
#> 4 8        12    12 accept   -$20/+$20     1
#> 5 8        14    14 accept   -$20/+$20     1
#> 6 8        16    16 accept   -$20/+$20     1
#> # ... with 1,983 more rows
…
In particular, the output shows that in the asymmetric conditions, -$20/+$40 and -$40/+$20, we only have three symmetric lotteries, whereas in the two symmetric conditions we have quite a lot more. However, the three symmetric lotteries that appear in the asymmetric conditions, 12-12, 16-16, and 20-20, appear in all conditions.

Before focussing on how we can build a better filter, let’s first examine in detail how the code above works. We first filter to obtain all symmetric lotteries. From this data set, we then retain or select() only the loss, gain, and condition columns. We then use the unique() function to only retain the unique rows. Because we have a specific ordering in which we think about the conditions (which is expressed in the order of the factor levels) we then sort the tibble along the condition variable using arrange(). Finally, because a tibble only prints a few rows by default, we use print(n = Inf) which prints all rows (i.e., up to row infinity).

To better understand the code, you are encouraged to run it line by line to see what the output at each intermediate step is. The easiest way to do so is by selecting parts of it in the R script window and then sending it to the console using the shortcut (i.e., Ctrl/CMD + Enter). Note that when selecting only a subset of lines in this code, do not select the %>% at the end of the last line before sending it to the console. Otherwise R will think you are not yet finished. In general, it’s a good idea to step line-by-line through much of the code we present here, and at your own speed, in order to fully understand its operation.

Now that we know which symmetric lotteries there are, how can we select only the symmetric lotteries that appear in all conditions? There clearly are multiple different filters that would do this. The one that first comes to my mind is to combine the filter that selects all symmetric lotteries with a filter that only selects lotteries in which the potential loss is either 12, 16, or 20. For the latter, we introduce a new operator, the %in% operator. It returns TRUE for any element of a vector that matches an element in another vector. For example in our case, we want to retain all those lotteries where the potential loss is in c(12, 16, 20). This is shown below. We also include the code that shows we now have the same set of symmetric lotteries in all conditions.

tbl1a %>%
  filter(loss == gain, loss %in% c(12, 16, 20)) %>% 
  select(loss, gain, condition) %>% 
  unique() %>% 
  arrange(condition) 
#> # A tibble: 12 x 3
#>    loss  gain condition
#>   <dbl> <dbl> <fct>    
#> 1    12    12 -$20/+$40
#> 2    16    16 -$20/+$40
#> 3    20    20 -$20/+$40
#> 4    12    12 -$20/+$20
#> 5    16    16 -$20/+$20
#> 6    20    20 -$20/+$20
#> # ... with 6 more rows
…
Note that pretty much the same result would be obtained if only passing one of the gain/loss variable pairs to group_by() here (i.e., group_by(condition, loss) or group_by(condition, gain)). Feel free to try it out.

These results are not straightforward to interpret as they do not show a consistent pattern across conditions. For the symmetric conditions, the difference in acceptance rate seems to be small. However, for the asymmetric conditions, we see somewhat larger differences, suggesting that the 16-16 lottery may have somewhat lower acceptance rates than both the 12-12 and 20-20 lottery. As these are only descriptive results without any additional statistical evidence, it is very much possible that these small differences within conditions reflect pure noise and should not be taken too seriously.

Before moving to the next function, there is one more thing to discuss. As shown in the output above, summarise() returns a tibble that is still grouped due to the call to the group_by() command with more than one variable. This can be seen by both the status message “summarise() has grouped output by …” and because the output still shows # Groups: .... This means that if we were to do any further operations on this tibble, it would still be performed grouped. To remove the grouping created by group_by(), use ungroup():

tbl1a %>%
  filter(loss == gain, loss %in% c(12, 16, 20)) %>% 
  group_by(condition, loss, gain) %>% 
  summarise(mean_acc = mean(resp)) %>% 
  ungroup()
#> `summarise()` has grouped output by 'condition', 'loss'. You can override using the `.groups` argument.
#> # A tibble: 12 x 4
#>   condition  loss  gain mean_acc
#>   <fct>     <dbl> <dbl>    <dbl>
#> 1 -$20/+$40    12    12    0.190
#> 2 -$20/+$40    16    16    0.119
#> 3 -$20/+$40    20    20    0.190
#> 4 -$20/+$20    12    12    0.469
#> 5 -$20/+$20    16    16    0.458
#> 6 -$20/+$20    20    20    0.458
#> # ... with 6 more rows

3.5.3.5 Counting

Another important functionality of dplyr is that it makes it easy to count observations using the count() or n() functions. Counting is one of the operations that seems somewhat unspectacular at the beginning, but is extremely important for understanding your data. For example, an important question we might have for our data is how many participants we have per condition or how many trials every participant worked on. Counting is also a good way to check that you have the exact number of observations that you expect from the original design of the experiment.

Let us begin by looking at the number of trials per participant (and condition). There are two almost equivalent ways of doing this, either using group_by() and summarise(n = n()) or count():

tbl1a %>% 
  group_by(condition, subno) %>% 
  summarise(n = n())
#> `summarise()` has grouped output by 'condition'. You can override using the `.groups` argument.
#> # A tibble: 358 x 3
#> # Groups:   condition [4]
#>   condition subno     n
#>   <fct>     <fct> <int>
#> 1 -$20/+$40 5        64
#> 2 -$20/+$40 13       64
#> 3 -$20/+$40 53       64
#> 4 -$20/+$40 61       64
#> 5 -$20/+$40 73       64
#> 6 -$20/+$40 85       64
#> # ... with 352 more rows

tbl1a %>% 
  count(condition, subno)
#> # A tibble: 358 x 3
#>   condition subno     n
#>   <fct>     <fct> <int>
#> 1 -$20/+$40 5        64
#> 2 -$20/+$40 13       64
#> 3 -$20/+$40 53       64
#> 4 -$20/+$40 61       64
#> 5 -$20/+$40 73       64
#> 6 -$20/+$40 85       64
#> # ... with 352 more rows
…
