tidyverse: Example, Quiz, and Exercises | Introduction to Statistics for Experimental Psychology with R
…
We use new names for the resulting data objects (ws1a and ws1b) to help us remember that this is the data from Walasek and Stewart (2015), Experiments 1a and 1b. It's generally a good idea to use descriptive object names as this makes code easier to read later on. Especially when the code is long, one could even use more descriptive names such as walasek_stewart_2015_1a and walasek_stewart_2015_1b. However, as this example stays relatively short, the first letter of the last names and no year will suffice.

Note that as in the previous chapter, if you have problems downloading these two files or setting up the correct working directory, you can load them directly from the internet as well. However, this is not recommended and only shown here to make sure you can follow all steps in this example.

ws1a <- read_csv("https://github.com/singmann/stats_for_experiments/raw/master/data/ws2015_exp1a.csv")
ws1b <- read_csv("https://github.com/singmann/stats_for_experiments/raw/master/data/ws2015_exp1b.csv")

We now have two data sets that have the same structure (i.e., with the same columns and data types) as we can see by just printing them both:

ws1a
#> # A tibble: 22,912 × 6
#>   subno  loss  gain response condition  resp
#>   <dbl> <dbl> <dbl> <chr>        <dbl> <dbl>
#> 1     8     6     6 accept        20.2     1
#> 2     8     6     8 accept        20.2     1
#> 3     8     6    10 accept        20.2     1
#> 4     8     6    12 accept        20.2     1
#> 5     8     6    14 accept        20.2     1
#> 6     8     6    16 accept        20.2     1
#> # ℹ 22,906 more rows
ws1b
#> # A tibble: 27,072 × 6
#>   subno  loss  gain response condition  resp
#>   <dbl> <dbl> <dbl> <chr>        <dbl> <dbl>
#> 1     1     6    12 accept        40.2     1
#> 2     1     6    16 accept        40.2     1
#> 3     1     6    20 accept        40.2     1
#> 4     1     6    24 accept        40.2     1
#> 5     1     6    28 accept        40.2     1
#> 6     1     6    32 accept        40.2     1
#> # ℹ 27,066 more rows
…
Now that we have combined the two data sets into one tibble, we can further prepare it for analysis. For this, we turn all categorical variables into factors, as shown before.

ws1 <- ws1 %>% 
  mutate(
    subno = factor(subno),
    response = factor(response, levels = c("reject", "accept")),
    condition = factor(
      condition, 
      levels = c(40.2, 20.2, 40.4, 20.4), 
      labels = c("-$20/+$40", "-$20/+$20", "-$40/+$40", "-$40/+$20")
    )
  )
ws1
#> # A tibble: 49,984 × 6
#>   subno  loss  gain response condition  resp
#>   <fct> <dbl> <dbl> <fct>    <fct>     <dbl>
#> 1 e1a_8     6     6 accept   -$20/+$20     1
#> 2 e1a_8     6     8 accept   -$20/+$20     1
#> 3 e1a_8     6    10 accept   -$20/+$20     1
#> 4 e1a_8     6    12 accept   -$20/+$20     1
#> 5 e1a_8     6    14 accept   -$20/+$20     1
#> 6 e1a_8     6    16 accept   -$20/+$20     1
#> # ℹ 49,978 more rows
…
How many rows does the data from each participant occupy?

How many participants are in each condition?

Hint

Sounds like a job for summarise()

Solution

earworm %>% 
  group_by(id) %>% 
  summarise(n = n()) 
#> # A tibble: 48 × 2
#>   id        n
#>   <fct> <int>
#> 1 102       1
#> 2 103       1
#> 3 104       1
#> 4 105       1
#> 5 106       1
#> 6 107       1
#> # ℹ 42 more rows
…
